== SUSY == 
                 one class         100               1000              10000             1000000
---------------  ----------------  ----------------  ----------------  ----------------  ----------------
two-class        -                 0.652  +- 0.031   0.742  +- 0.011   0.792  +- 0.004   *0.878* +- 0.000
semi-supervised  0.378  +- 0.000   0.715  +- 0.020   0.766  +- 0.009   *0.847* +- 0.002  0.876  +- 0.000
deep-svdd        0.568  +- 0.000   0.479  +- 0.027   0.519  +- 0.030   0.533  +- 0.083   0.470  +- 0.029
brute-force-ope  0.597  +- 0.000   0.672  +- 0.020   0.748  +- 0.012   0.792  +- 0.003   0.878  +- 0.000
hmc-eope         0.472  +- 0.000   *0.744* +- 0.021  *0.784* +- 0.008  0.827  +- 0.003   0.877  +- 0.000
rmsprop-eope     0.528  +- 0.000   0.713  +- 0.024   0.757  +- 0.009   0.807  +- 0.005   0.877  +- 0.000
deep-eope        *0.652* +- 0.000  0.688  +- 0.031   0.778  +- 0.014   0.817  +- 0.004   0.877  +- 0.000


== Omniglot-Braille == 
                 one class         1                 2                 4
---------------  ----------------  ----------------  ----------------  ----------------
two-class        -                 0.973  +- 0.005   0.992  +- 0.008   0.996  +- 0.004
semi-supervised  0.978  +- 0.000   0.871  +- 0.067   0.953  +- 0.017   0.973  +- 0.009
deep-svdd        0.879  +- 0.000   0.500  +- 0.000   0.500  +- 0.000   0.500  +- 0.000
brute-force-ope  0.211  +- 0.000   0.978  +- 0.011   0.995  +- 0.005   0.997  +- 0.000
hmc-eope         0.834  +- 0.000   0.988  +- 0.013   0.996  +- 0.005   0.998  +- 0.001
rmsprop-eope     *0.993* +- 0.000  *0.999* +- 0.000  *0.998* +- 0.002  *1.000* +- 0.000
deep-eope        0.970  +- 0.000   0.986  +- 0.016   0.998  +- 0.003   0.999  +- 0.001


== Omniglot-Futurama == 
                 one class         1                 2                 4
---------------  ----------------  ----------------  ----------------  ----------------
two-class        -                 0.707  +- 0.081   0.771  +- 0.036   0.746  +- 0.058
semi-supervised  0.433  +- 0.000   *0.723* +- 0.042  *0.772* +- 0.039  0.734  +- 0.046
deep-svdd        0.551  +- 0.000   0.500  +- 0.000   0.500  +- 0.000   0.500  +- 0.000
brute-force-ope  *0.626* +- 0.000  0.693  +- 0.049   0.730  +- 0.055   *0.753* +- 0.068
hmc-eope         0.487  +- 0.000   0.706  +- 0.033   0.755  +- 0.035   0.749  +- 0.060
rmsprop-eope     0.316  +- 0.000   0.648  +- 0.026   0.727  +- 0.036   0.741  +- 0.066
deep-eope        0.602  +- 0.000   0.699  +- 0.058   0.751  +- 0.049   0.743  +- 0.076


== Omniglot-Greek == 
                 one class         1                 2                 4
---------------  ----------------  ----------------  ----------------  ----------------
two-class        -                 0.641  +- 0.072   0.751  +- 0.042   0.744  +- 0.022
semi-supervised  0.779  +- 0.000   0.600  +- 0.059   0.734  +- 0.042   0.715  +- 0.017
deep-svdd        0.576  +- 0.000   0.500  +- 0.000   0.500  +- 0.000   0.500  +- 0.000
brute-force-ope  0.706  +- 0.000   0.703  +- 0.047   0.775  +- 0.031   0.770  +- 0.029
hmc-eope         0.722  +- 0.000   0.705  +- 0.055   0.777  +- 0.017   0.774  +- 0.022
rmsprop-eope     0.756  +- 0.000   *0.828* +- 0.025  *0.825* +- 0.019  *0.840* +- 0.014
deep-eope        *0.786* +- 0.000  0.725  +- 0.079   0.795  +- 0.019   0.772  +- 0.016


== KDD == 
                 one class         1                 2                 4                 8
---------------  ----------------  ----------------  ----------------  ----------------  ----------------
two-class        -                 0.501  +- 0.213   0.308  +- 0.235   0.692  +- 0.355   0.550  +- 0.247
semi-supervised  0.973  +- 0.000   0.294  +- 0.282   0.222  +- 0.308   0.825  +- 0.147   0.732  +- 0.217
deep-svdd        0.963  +- 0.000   0.774  +- 0.261   0.762  +- 0.290   0.913  +- 0.054   0.569  +- 0.269
brute-force-ope  0.638  +- 0.000   0.619  +- 0.185   0.398  +- 0.261   0.797  +- 0.099   0.554  +- 0.299
hmc-eope         0.787  +- 0.000   0.908  +- 0.144   *0.939* +- 0.047  0.912  +- 0.056   0.958  +- 0.025
rmsprop-eope     *0.975* +- 0.000  *0.963* +- 0.009  0.844  +- 0.235   *0.932* +- 0.063  *0.970* +- 0.015
deep-eope        0.961  +- 0.000   0.812  +- 0.114   0.498  +- 0.361   0.850  +- 0.095   0.766  +- 0.251


== CIFAR-9 == 
                 one class         1                 2                 4
---------------  ----------------  ----------------  ----------------  ----------------
two-class        -                 0.700  +- 0.067   0.779  +- 0.038   *0.829* +- 0.009
brute-force-ope  0.454  +- 0.000   0.706  +- 0.085   0.746  +- 0.042   0.806  +- 0.023
hmc-eope         -                 0.675  +- 0.094   0.756  +- 0.028   0.802  +- 0.018
rmsprop-eope     -                 0.705  +- 0.050   0.787  +- 0.053   0.828  +- 0.005
deep-eope        *0.780* +- 0.000  *0.715* +- 0.058  *0.795* +- 0.031  0.814  +- 0.048


== CIFAR-0 == 
                 one class         1                 2                 4
---------------  ----------------  ----------------  ----------------  ----------------
two-class        -                 0.749  +- 0.028   0.726  +- 0.059   0.772  +- 0.011
semi-supervised  0.700  +- 0.000   0.697  +- 0.040   0.699  +- 0.035   0.739  +- 0.023
deep-svdd        0.530  +- 0.000   0.500  +- 0.000   0.500  +- 0.000   0.500  +- 0.000
brute-force-ope  0.686  +- 0.000   0.779  +- 0.033   0.755  +- 0.057   0.796  +- 0.007
hmc-eope         *0.767* +- 0.000  0.765  +- 0.037   0.735  +- 0.028   0.792  +- 0.038
rmsprop-eope     0.626  +- 0.000   0.776  +- 0.040   *0.783* +- 0.009  *0.806* +- 0.023
deep-eope        0.687  +- 0.000   *0.779* +- 0.049  0.768  +- 0.023   0.799  +- 0.018


== CIFAR-7 == 
                 one class         1                 2                 4
---------------  ----------------  ----------------  ----------------  ----------------
two-class        -                 0.640  +- 0.061   0.721  +- 0.028   0.783  +- 0.022
semi-supervised  0.477  +- 0.000   0.576  +- 0.042   0.653  +- 0.036   0.701  +- 0.011
deep-svdd        0.553  +- 0.000   0.500  +- 0.000   0.500  +- 0.000   0.500  +- 0.000
brute-force-ope  0.472  +- 0.000   0.668  +- 0.053   0.735  +- 0.044   *0.792* +- 0.015
hmc-eope         0.429  +- 0.000   0.668  +- 0.054   0.749  +- 0.039   0.778  +- 0.025
rmsprop-eope     0.500  +- 0.000   0.654  +- 0.049   *0.760* +- 0.011  0.789  +- 0.020
deep-eope        *0.752* +- 0.000  *0.740* +- 0.039  0.749  +- 0.038   0.769  +- 0.022


== CIFAR-1 == 
                 one class         1                 2                 4
---------------  ----------------  ----------------  ----------------  ----------------
two-class        -                 0.763  +- 0.066   0.833  +- 0.042   0.863  +- 0.011
semi-supervised  0.369  +- 0.000   0.658  +- 0.031   0.721  +- 0.028   0.761  +- 0.007
deep-svdd        *0.547* +- 0.000  0.500  +- 0.000   0.500  +- 0.000   0.500  +- 0.000
brute-force-ope  0.489  +- 0.000   0.751  +- 0.061   0.812  +- 0.049   0.860  +- 0.009
hmc-eope         0.437  +- 0.000   *0.825* +- 0.013  0.828  +- 0.027   0.849  +- 0.007
rmsprop-eope     0.384  +- 0.000   0.814  +- 0.048   *0.845* +- 0.015  *0.868* +- 0.015
deep-eope        0.503  +- 0.000   0.816  +- 0.018   0.768  +- 0.070   0.836  +- 0.028


== CIFAR-3 == 
                 one class         1                 2                 4
---------------  ----------------  ----------------  ----------------  ----------------
two-class        -                 0.558  +- 0.069   0.641  +- 0.048   0.641  +- 0.042
semi-supervised  0.569  +- 0.000   0.565  +- 0.035   0.616  +- 0.052   0.625  +- 0.038
deep-svdd        0.506  +- 0.000   0.500  +- 0.000   0.500  +- 0.000   0.500  +- 0.000
brute-force-ope  0.514  +- 0.000   0.609  +- 0.051   *0.650* +- 0.050  0.670  +- 0.050
hmc-eope         0.538  +- 0.000   *0.640* +- 0.022  0.638  +- 0.088   *0.682* +- 0.020
rmsprop-eope     *0.621* +- 0.000  0.596  +- 0.032   0.615  +- 0.048   0.671  +- 0.021
deep-eope        0.471  +- 0.000   0.567  +- 0.019   0.602  +- 0.033   0.561  +- 0.024


== CIFAR-6 == 
                 one class         1                 2                 4
---------------  ----------------  ----------------  ----------------  ----------------
two-class        -                 0.609  +- 0.048   0.710  +- 0.010   0.762  +- 0.033
semi-supervised  *0.586* +- 0.000  0.423  +- 0.019   0.547  +- 0.014   0.585  +- 0.017
deep-svdd        0.540  +- 0.000   0.500  +- 0.000   0.500  +- 0.000   0.500  +- 0.000
brute-force-ope  0.487  +- 0.000   *0.670* +- 0.075  0.703  +- 0.019   *0.783* +- 0.037
hmc-eope         0.531  +- 0.000   0.642  +- 0.047   *0.733* +- 0.019  0.774  +- 0.022
rmsprop-eope     0.356  +- 0.000   0.635  +- 0.020   0.671  +- 0.049   0.752  +- 0.005
deep-eope        0.537  +- 0.000   0.544  +- 0.088   0.508  +- 0.030   0.632  +- 0.059


== CIFAR-2 == 
                 one class         1                 2                 4
---------------  ----------------  ----------------  ----------------  ----------------
two-class        -                 0.585  +- 0.051   0.550  +- 0.019   0.611  +- 0.013
semi-supervised  *0.679* +- 0.000  0.483  +- 0.026   0.470  +- 0.005   0.547  +- 0.028
deep-svdd        0.506  +- 0.000   0.500  +- 0.000   0.500  +- 0.000   0.500  +- 0.000
brute-force-ope  0.498  +- 0.000   0.596  +- 0.036   0.575  +- 0.004   0.634  +- 0.021
hmc-eope         0.576  +- 0.000   0.591  +- 0.076   0.595  +- 0.046   0.641  +- 0.016
rmsprop-eope     0.582  +- 0.000   *0.635* +- 0.022  *0.658* +- 0.031  *0.667* +- 0.022
deep-eope        0.476  +- 0.000   0.582  +- 0.031   0.616  +- 0.055   0.639  +- 0.063


== CIFAR-8 == 
                 one class         1                 2                 4
---------------  ----------------  ----------------  ----------------  ----------------
two-class        -                 0.711  +- 0.055   0.785  +- 0.009   0.824  +- 0.026
semi-supervised  -                 0.682  +- 0.087   0.741  +- 0.033   0.784  +- 0.022
deep-svdd        0.590  +- 0.000   0.500  +- 0.000   0.500  +- 0.000   0.500  +- 0.000
brute-force-ope  0.672  +- 0.000   0.760  +- 0.037   0.801  +- 0.014   0.831  +- 0.020
hmc-eope         0.713  +- 0.000   0.751  +- 0.054   0.805  +- 0.004   0.839  +- 0.031
rmsprop-eope     -                 *0.790* +- 0.045  *0.851* +- 0.011  *0.857* +- 0.019
deep-eope        *0.725* +- 0.000  0.682  +- 0.045   0.752  +- 0.040   0.703  +- 0.041


== CIFAR-4 == 
                 one class         1                 2                 4
---------------  ----------------  ----------------  ----------------  ----------------
two-class        -                 0.585  +- 0.068   0.620  +- 0.019   0.650  +- 0.027
semi-supervised  *0.709* +- 0.000  0.447  +- 0.069   0.463  +- 0.034   0.531  +- 0.026
deep-svdd        0.501  +- 0.000   0.500  +- 0.000   0.500  +- 0.000   0.500  +- 0.000
brute-force-ope  0.454  +- 0.000   0.603  +- 0.062   0.616  +- 0.048   0.667  +- 0.032
hmc-eope         0.493  +- 0.000   0.616  +- 0.043   *0.646* +- 0.032  *0.694* +- 0.032
rmsprop-eope     0.644  +- 0.000   *0.666* +- 0.053  0.636  +- 0.003   0.673  +- 0.042
deep-eope        0.419  +- 0.000   0.505  +- 0.065   0.552  +- 0.038   0.496  +- 0.016


== CIFAR-5 == 
                 one class         1                 2                 4
---------------  ----------------  ----------------  ----------------  ----------------
two-class        -                 0.697  +- 0.023   0.695  +- 0.036   0.736  +- 0.017
semi-supervised  0.563  +- 0.000   0.644  +- 0.033   0.676  +- 0.020   0.684  +- 0.027
deep-svdd        0.556  +- 0.000   0.500  +- 0.000   0.500  +- 0.000   0.500  +- 0.000
brute-force-ope  0.628  +- 0.000   0.722  +- 0.027   0.730  +- 0.021   *0.742* +- 0.006
hmc-eope         0.609  +- 0.000   *0.733* +- 0.022  *0.740* +- 0.027  0.740  +- 0.027
rmsprop-eope     *0.680* +- 0.000  0.701  +- 0.016   0.686  +- 0.063   0.737  +- 0.015
deep-eope        0.641  +- 0.000   0.577  +- 0.034   0.629  +- 0.040   0.601  +- 0.031


== HIGGS == 
                 one class         100               1000              10000             1000000
---------------  ----------------  ----------------  ----------------  ----------------  ----------------
two-class        -                 0.496  +- 0.017   0.529  +- 0.007   0.566  +- 0.006   0.858  +- 0.002
semi-supervised  *0.535* +- 0.000  0.497  +- 0.011   0.521  +- 0.004   0.604  +- 0.002   0.742  +- 0.006
deep-svdd        0.487  +- 0.000   0.500  +- 0.007   0.497  +- 0.009   0.498  +- 0.006   0.499  +- 0.007
brute-force-ope  0.508  +- 0.000   0.500  +- 0.009   0.520  +- 0.003   0.572  +- 0.005   0.859  +- 0.001
hmc-eope         0.491  +- 0.000   0.523  +- 0.005   *0.567* +- 0.008  *0.648* +- 0.005  0.848  +- 0.001
rmsprop-eope     0.497  +- 0.000   0.497  +- 0.004   0.532  +- 0.007   0.603  +- 0.007   *0.860* +- 0.001
deep-eope        0.531  +- 0.000   *0.530* +- 0.008  0.565  +- 0.008   0.631  +- 0.003   0.860  +- 0.001
