                 one class         1                 2                 4
---------------  ----------------  ----------------  ----------------  ----------------
two-class        -                 0.585  +- 0.068   0.620  +- 0.019   0.650  +- 0.027
semi-supervised  *0.709* +- 0.000  0.447  +- 0.069   0.463  +- 0.034   0.531  +- 0.026
deep-svdd        0.501  +- 0.000   0.500  +- 0.000   0.500  +- 0.000   0.500  +- 0.000
brute-force-ope  0.454  +- 0.000   0.603  +- 0.062   0.616  +- 0.048   0.667  +- 0.032
hmc-eope         0.493  +- 0.000   0.616  +- 0.043   *0.646* +- 0.032  *0.694* +- 0.032
rmsprop-eope     0.644  +- 0.000   *0.666* +- 0.053  0.636  +- 0.003   0.673  +- 0.042
deep-eope        0.419  +- 0.000   0.505  +- 0.065   0.552  +- 0.038   0.496  +- 0.016