                 one class         1                 2                 4
---------------  ----------------  ----------------  ----------------  ----------------
two-class        -                 0.585  +- 0.051   0.550  +- 0.019   0.611  +- 0.013
semi-supervised  *0.679* +- 0.000  0.483  +- 0.026   0.470  +- 0.005   0.547  +- 0.028
deep-svdd        0.506  +- 0.000   0.500  +- 0.000   0.500  +- 0.000   0.500  +- 0.000
brute-force-ope  0.498  +- 0.000   0.596  +- 0.036   0.575  +- 0.004   0.634  +- 0.021
hmc-eope         0.576  +- 0.000   0.591  +- 0.076   0.595  +- 0.046   0.641  +- 0.016
rmsprop-eope     0.582  +- 0.000   *0.635* +- 0.022  *0.658* +- 0.031  *0.667* +- 0.022
deep-eope        0.476  +- 0.000   0.582  +- 0.031   0.616  +- 0.055   0.639  +- 0.063